<svg width="32" height="32" viewBox="0 0 32 32" fill="none" xmlns="http://www.w3.org/2000/svg">
<path d="M31.2825 25.2893L26.3406 20.3469C25.3563 19.3665 23.7262 19.3963 22.7076 20.4153L20.2179 22.9045C20.0606 22.8178 19.8978 22.7272 19.7266 22.6312C18.1543 21.76 16.0024 20.566 13.738 18.2999C11.4669 16.029 10.2717 13.8738 9.39791 12.3006C9.30571 12.1339 9.21736 11.9732 9.13011 11.8206L10.8011 10.1521L11.6226 9.32956C12.6428 8.3091 12.6709 6.67948 11.6889 5.69625L6.74701 0.753253C5.76497 -0.228599 4.13416 -0.198812 3.11397 0.821652L1.72118 2.22245L1.75924 2.26023C1.29221 2.85614 0.901955 3.54344 0.611537 4.28461C0.343826 4.99011 0.17715 5.66334 0.100937 6.33795C-0.551608 11.7477 1.92049 16.6918 8.62944 23.4008C17.9033 32.674 25.3767 31.9735 25.6991 31.9393C26.4013 31.8553 27.0743 31.6876 27.7582 31.422C28.4929 31.1349 29.1797 30.7452 29.7753 30.2792L29.8057 30.3063L31.2167 28.9246C32.2348 27.9043 32.2641 26.2741 31.2825 25.2893Z" fill="white"/>
</svg>
